COMP/STAT112 Notebook - 7 Exam 2 ### (Barrett Edwards)
…
tuesdata <- tidytuesdayR::tt_load(2020, week = 8)

---- Compiling #TidyTuesday Information for 2020-02-18 ----
--- There is 1 file available ---

── Downloading files ───────────────────────────────────────────────────────────

  1 of 1: "food_consumption.csv"

food_consumption <- tuesdata$food_consumption

# 2.1 Data Dictionary (View Data)
food_consumption

# A tibble: 1,430 × 4
   country   food_category            consumption co2_emmission
   <chr>     <chr>                          <dbl>         <dbl>
 1 Argentina Pork                           10.5          37.2 
 2 Argentina Poultry                        38.7          41.5 
 3 Argentina Beef                           55.5        1712   
 4 Argentina Lamb & Goat                     1.56         54.6 
 5 Argentina Fish                            4.36          6.96
 6 Argentina Eggs                           11.4          10.5 
 7 Argentina Milk - inc. cheese            195.          278.  
 8 Argentina Wheat and Wheat Products      103.           19.7 
 9 Argentina Rice                            8.77         11.2 
10 Argentina Soybeans                        0             0   
# ℹ 1,420 more rows
…
head (fc, 22)

# A tibble: 22 × 4
   country   food_category            consumption co2_emmission
   <chr>     <chr>                          <dbl>         <dbl>
 1 Argentina Pork                           10.5          37.2 
 2 Argentina Poultry                        38.7          41.5 
 3 Argentina Beef                           55.5        1712   
 4 Argentina Lamb & Goat                     1.56         54.6 
 5 Argentina Fish                            4.36          6.96
 6 Argentina Eggs                           11.4          10.5 
 7 Argentina Milk - inc. cheese            195.          278.  
 8 Argentina Wheat and Wheat Products      103.           19.7 
 9 Argentina Rice                            8.77         11.2 
10 Argentina Soybeans                        0             0   
# ℹ 12 more rows
…
