COMP/STAT112 Notebook - 8 Solo Project
…
Minnesota_Congressional_Results_2024 <- Minnesota_Congressional_Results_2024 |>
  mutate(Year = 2024)

Combined_Minnesota_Congressional_Results <- bind_rows(
  Minnesota_Congressional_Results_2022,
  Minnesota_Congressional_Results_2024)

# Fix District Variable (To Match Geographic Data)
Combined_Minnesota_Congressional_Results$District <- sprintf("%02d", Combined_Minnesota_Congressional_Results$District)

Combined_Minnesota_Congressional_Results

# A tibble: 32 × 4
   District Party Voteshare  Year
   <chr>    <chr>     <dbl> <dbl>
 1 01       R          53.8  2022
 2 01       DFL        42.3  2022
 3 02       R          45.6  2022
 4 02       DFL        50.9  2022
 5 03       R          40.4  2022
 6 03       DFL        59.6  2022
 7 04       R          32.3  2022
 8 04       DFL        67.6  2022
 9 05       R          24.5  2022
10 05       DFL        74.3  2022
# ℹ 22 more rows
…
